[
    [
        "RN ten Doeschate",
        "4.00"
    ],
    [
        "J Yadav",
        "4.14"
    ],
    [
        "R Ashwin",
        "5.87"
    ],
    [
        "S Nadeem",
        "6.14"
    ],
    [
        "Parvez Rasool",
        "6.20"
    ],
    [
        "Z Khan",
        "6.36"
    ],
    [
        "MC Henriques",
        "6.56"
    ],
    [
        "M Vijay",
        "7.00"
    ],
    [
        "GB Hogg",
        "7.05"
    ],
    [
        "MA Starc",
        "7.12"
    ]
]